Spain Occupational Accident Analysis (SODA)
…
Active working population

epa_sector |>
  filter(region == "ES",
         # periodo == "2020-09-30",
         edad == "total",
         sexo == "total")

# A tibble: 305 × 6
   periodo    region sector edad  sexo   valor
   <date>     <chr>  <chr>  <chr> <chr>  <dbl>
 1 2023-01-31 ES     total  total total 20453.
 2 2022-12-31 ES     total  total total 20464.
 3 2022-09-30 ES     total  total total 20546.
 4 2022-06-30 ES     total  total total 20468 
 5 2022-01-31 ES     total  total total 20085.
 6 2021-12-31 ES     total  total total 20185.
 7 2021-09-30 ES     total  total total 20031 
 8 2021-06-30 ES     total  total total 19672.
 9 2021-01-31 ES     total  total total 19207.
10 2020-12-31 ES     total  total total 19344.
# ℹ 295 more rows
…
